…
<!-- end list -->

``` r
# Implement 2.
# Computer the number of observations of each genus in genus_name (categorical variable).
genus_count <- vancouver_trees %>%
  select(genus_name) %>% # select only genus_name from vancouver_trees dataset
  group_by(genus_name) %>% # group rows by genus_name
  mutate(count = n()) %>% # add a new column to count the number of each genus
  arrange(count) %>% # arrange rows by count in ascending order
  distinct() # delete duplicated rows
genus_count
```

    ## # A tibble: 97 × 2
    ## # Groups:   genus_name [97]
    ##    genus_name          count
    ##    <chr>               <int>
    ##  1 KALOPANAX               1
    ##  2 HALESIA                 1
    ##  3 ALBIZIA                 1
    ##  4 OXYDENDRUM              2
    ##  5 MICHELIA                2
    ##  6 CUPRESSOCYPARIS   X     2
    ##  7 EUCALYPTUS              2
    ##  8 CLERODENDRON            2
    ##  9 PTEROSTYRAX             3
    ## 10 SCIADOPITYS             3
    ## # … with 87 more rows
…
# The range of year in vancouver_trees is from 1989 to 2019. Create year_period (new categorical variable) as a new col that contains 3 decades with date_planted variable (existing numerical variable).
# Use height_years_trees to help count number of trees in each decade. 
height_years_trees <- vancouver_trees %>% 
  select(height_range_id, date_planted) %>% # select height_range_id and date_planted variables from vancouver_trees
  # create a new column to count number of trees that planted in each decade
  # assign 1989~1999 label to trees planed in this range
  # assign 2000~2010 label to trees planed in this range
  # assign 2011~2019 label to trees planed in this range
  mutate(year_period = ifelse(date_planted <= '1999-12-31', "1989~1999", 
                       ifelse(date_planted >= '2000-1-1' & date_planted <= '2010-12-31', "2000~2010", 
                       ifelse(date_planted >= '2011-1-1', "2011~2019", NA))))
height_years_trees
```

    ## # A tibble: 146,611 × 3
    ##    height_range_id date_planted year_period
    ##              <dbl> <date>       <chr>      
    ##  1               2 1999-01-13   1989~1999  
    ##  2               4 1996-05-31   1989~1999  
    ##  3               3 1993-11-22   1989~1999  
    ##  4               4 1996-04-29   1989~1999  
    ##  5               2 1993-12-17   1989~1999  
    ##  6               2 NA           <NA>       
    ##  7               3 1993-12-16   1989~1999  
    ##  8               3 1993-12-16   1989~1999  
    ##  9               2 1993-12-16   1989~1999  
    ## 10               2 1993-12-03   1989~1999  
    ## # … with 146,601 more rows
…
<!-- end list -->

``` r
# Implement 2.
# Compute the number of observations of each height id and each decade in height_range_id (categorical variable) and year_period (categorical variable). In each height range id, compare the number of trees in each decade.
height_trees_count <- height_years_trees %>% 
  group_by(height_range_id, year_period) %>% # group rows by height_range_id and year_period
  mutate(height_count = n()) %>% # create a new column to store the number of trees in each height range and decade
  distinct(height_range_id, year_period, height_count) %>% # delete duplicated rows
  arrange(height_range_id, year_period) # arrange rows by height_range_id and year_period in ascending order
height_trees_count
```

    ## # A tibble: 39 × 3
    ## # Groups:   height_range_id, year_period [39]
    ##    height_range_id year_period height_count
    ##              <dbl> <chr>              <int>
    ##  1               0 1989~1999              9
    ##  2               0 2000~2010             32
    ##  3               0 2011~2019             28
    ##  4               0 <NA>                 145
    ##  5               1 1989~1999           1145
    ##  6               1 2000~2010          18190
    ##  7               1 2011~2019          15288
    ##  8               1 <NA>                5336
    ##  9               2 1989~1999          14670
    ## 10               2 2000~2010           9328
    ## # … with 29 more rows
…
<!-- end list -->

``` r
# Implement 1.
# Use summary statistics of diameter to help determine which genus of trees are more likely to be thicker.
diameter_summary <- vancouver_trees %>%
  group_by(genus_name) %>% # group rows by genus_name
  drop_na(diameter) %>% # drop NA values
  # calculate min, Q1, median, mean, Q2, max and range of diameter
  summarise(min = min(diameter), Q1 = quantile(diameter, probs = 1/4), median = median(diameter), mean = mean(diameter), Q2 = quantile(diameter, probs = 3/4), max = max(diameter), range = max - mean)
diameter_summary
```

    ## # A tibble: 97 × 8
    ##    genus_name    min    Q1 median  mean    Q2   max  range
    ##    <chr>       <dbl> <dbl>  <dbl> <dbl> <dbl> <dbl>  <dbl>
    ##  1 ABIES           1  3     12    12.9  19.5   42.5  29.6 
    ##  2 ACER            0  3      8    10.6  15    317   306.  
    ##  3 AESCULUS        0 19     25    23.7  30     64    40.3 
    ##  4 AILANTHUS       3 15     19.5  15.9  20.4   21.5   5.62
    ##  5 ALBIZIA         6  6      6     6     6      6     0   
    ##  6 ALNUS           0 12     17.5  17.5  23.4   40    22.5 
    ##  7 AMELANCHIER     0  3      3     3.21  3     20    16.8 
    ##  8 ARALIA          3  4.31   6.12  6.81  8.62  12     5.19
    ##  9 ARAUCARIA       3  4.12   8.5  11.4  12.9   32    20.6 
    ## 10 ARBUTUS         6  7.75  17.5  18.4  28.5   33    14.6 
    ## # … with 87 more rows
…
